SpatialExperiment with tidy principles • tidySpatialExperiment
…
# Join feature data in long format, discarding the SpatialExperiment object
spe |>
    join_features(features = c("ENSMUSG00000025915", "ENSMUSG00000042501"), shape = "long") |> 
    head()
#  tidySpatialExperiment says: A data frame is returned for independent data 
#                analysis.
#  # A tibble: 6 × 7
#    .cell       in_tissue array_row array_col sample_id .feature .abundance_counts
#    <chr>       <lgl>         <int>     <int> <chr>     <chr>                <dbl>
#  1 AAACAACGAA… FALSE             0        16 section1  ENSMUSG…                 0
#  2 AAACAACGAA… FALSE             0        16 section1  ENSMUSG…                 0
#  3 AAACAAGTAT… TRUE             50       102 section1  ENSMUSG…                 0
#  4 AAACAAGTAT… TRUE             50       102 section1  ENSMUSG…                 1
#  5 AAACAATCTA… TRUE              3        43 section1  ENSMUSG…                 0
#  # ℹ 1 more row
…
Details of the interactively drawn gates are saved to tidygate_env$gates. This variable is overwritten each time interactive gates are drawn, so save it right away if you would like to access it later.

# Inspect previously drawn gates
tidygate_env$gates |>
  head()
#  # A tibble: 6 × 3
#        x     y .gate
#    <dbl> <dbl> <dbl>
#  1 4310. 3125.     1
#  2 3734. 3161.     1
#  3 2942. 3521.     1
#  4 2834. 3665.     1
#  5 2834. 4385.     1
#  # ℹ 1 more row
…
Special column behaviour

Removing the .cell column will return a tibble. This is consistent with the behaviour in other tidyomics packages.

spe |>
    select(-.cell) |>
    head()
#  tidySpatialExperiment says: Key columns are missing. A data frame is 
#                          returned for independent data analysis.
#  # A tibble: 6 × 4
#    in_tissue array_row array_col sample_id
#    <lgl>         <int>     <int> <chr>    
#  1 FALSE             0        16 section1 
#  2 TRUE             50       102 section1 
#  3 TRUE              3        43 section1 
#  4 TRUE             59        19 section1 
#  5 TRUE             14        94 section1 
#  # ℹ 1 more row
…
